%YAML 1.1
%TAG !u! tag:unity3d.com,2011:
--- !u!1001 &100100000
Prefab:
  m_ObjectHideFlags: 1
  serializedVersion: 2
  m_Modification:
    m_TransformParent: {fileID: 0}
    m_Modifications: []
    m_RemovedComponents: []
  m_ParentPrefab: {fileID: 0}
  m_RootGameObject: {fileID: 1434496334728790}
  m_IsPrefabParent: 1
--- !u!1 &1019092972926516
GameObject:
  m_ObjectHideFlags: 1
  m_PrefabParentObject: {fileID: 0}
  m_PrefabInternal: {fileID: 100100000}
  serializedVersion: 5
  m_Component:
  - component: {fileID: 4739536109678572}
  m_Layer: 20
  m_Name: L Cheek
  m_TagString: Untagged
  m_Icon: {fileID: 0}
  m_NavMeshLayer: 0
  m_StaticEditorFlags: 0
  m_IsActive: 1
--- !u!1 &1020551640068736
GameObject:
  m_ObjectHideFlags: 1
  m_PrefabParentObject: {fileID: 0}
  m_PrefabInternal: {fileID: 100100000}
  serializedVersion: 5
  m_Component:
  - component: {fileID: 4234223790612768}
  - component: {fileID: 136996638658846366}
  m_Layer: 20
  m_Name: Spine
  m_TagString: Untagged
  m_Icon: {fileID: 0}
  m_NavMeshLayer: 0
  m_StaticEditorFlags: 0
  m_IsActive: 1
--- !u!1 &1097109082778744
GameObject:
  m_ObjectHideFlags: 1
  m_PrefabParentObject: {fileID: 0}
  m_PrefabInternal: {fileID: 100100000}
  serializedVersion: 5
  m_Component:
  - component: {fileID: 4815359111538158}
  - component: {fileID: 136012683989632710}
  m_Layer: 20
  m_Name: Spine1
  m_TagString: Untagged
  m_Icon: {fileID: 0}
  m_NavMeshLayer: 0
  m_StaticEditorFlags: 0
  m_IsActive: 1
--- !u!1 &1123271402119048
GameObject:
  m_ObjectHideFlags: 1
  m_PrefabParentObject: {fileID: 0}
  m_PrefabInternal: {fileID: 100100000}
  serializedVersion: 5
  m_Component:
  - component: {fileID: 4276821215342890}
  m_Layer: 20
  m_Name: L Forearm
  m_TagString: Untagged
  m_Icon: {fileID: 0}
  m_NavMeshLayer: 0
  m_StaticEditorFlags: 0
  m_IsActive: 1
--- !u!1 &1170791818229620
GameObject:
  m_ObjectHideFlags: 1
  m_PrefabParentObject: {fileID: 0}
  m_PrefabInternal: {fileID: 100100000}
  serializedVersion: 5
  m_Component:
  - component: {fileID: 4656842157299460}
  m_Layer: 20
  m_Name: L Clavicle
  m_TagString: Untagged
  m_Icon: {fileID: 0}
  m_NavMeshLayer: 0
  m_StaticEditorFlags: 0
  m_IsActive: 1
--- !u!1 &1193715922181044
GameObject:
  m_ObjectHideFlags: 1
  m_PrefabParentObject: {fileID: 0}
  m_PrefabInternal: {fileID: 100100000}
  serializedVersion: 5
  m_Component:
  - component: {fileID: 4378049535708794}
  - component: {fileID: 135614305875287232}
  - component: {fileID: 114027825624915586}
  - component: {fileID: 114830833388272276}
  m_Layer: 2
  m_Name: Track Left Back
  m_TagString: Untagged
  m_Icon: {fileID: 0}
  m_NavMeshLayer: 0
  m_StaticEditorFlags: 0
  m_IsActive: 1
--- !u!1 &1202833975254856
GameObject:
  m_ObjectHideFlags: 1
  m_PrefabParentObject: {fileID: 0}
  m_PrefabInternal: {fileID: 100100000}
  serializedVersion: 5
  m_Component:
  - component: {fileID: 4731270293174282}
  m_Layer: 20
  m_Name: Tail2
  m_TagString: Untagged
  m_Icon: {fileID: 0}
  m_NavMeshLayer: 0
  m_StaticEditorFlags: 0
  m_IsActive: 1
--- !u!1 &1211120830108304
GameObject:
  m_ObjectHideFlags: 1
  m_PrefabParentObject: {fileID: 0}
  m_PrefabInternal: {fileID: 100100000}
  serializedVersion: 5
  m_Component:
  - component: {fileID: 4435392296721936}
  m_Layer: 20
  m_Name: R HorseLink
  m_TagString: Untagged
  m_Icon: {fileID: 0}
  m_NavMeshLayer: 0
  m_StaticEditorFlags: 0
  m_IsActive: 1
--- !u!1 &1221866835988590
GameObject:
  m_ObjectHideFlags: 1
  m_PrefabParentObject: {fileID: 0}
  m_PrefabInternal: {fileID: 100100000}
  serializedVersion: 5
  m_Component:
  - component: {fileID: 4128389326394770}
  - component: {fileID: 135538268274813930}
  - component: {fileID: 114130754704850334}
  - component: {fileID: 114031055326986850}
  m_Layer: 2
  m_Name: Track Right Back
  m_TagString: Untagged
  m_Icon: {fileID: 0}
  m_NavMeshLayer: 0
  m_StaticEditorFlags: 0
  m_IsActive: 1
--- !u!1 &1261372224718620
GameObject:
  m_ObjectHideFlags: 0
  m_PrefabParentObject: {fileID: 0}
  m_PrefabInternal: {fileID: 100100000}
  serializedVersion: 5
  m_Component:
  - component: {fileID: 4780979748043036}
  - component: {fileID: 114418231266215106}
  m_Layer: 20
  m_Name: (2) PivotWater
  m_TagString: Untagged
  m_Icon: {fileID: 0}
  m_NavMeshLayer: 0
  m_StaticEditorFlags: 0
  m_IsActive: 1
--- !u!1 &1265896195567022
GameObject:
  m_ObjectHideFlags: 1
  m_PrefabParentObject: {fileID: 0}
  m_PrefabInternal: {fileID: 100100000}
  serializedVersion: 5
  m_Component:
  - component: {fileID: 4957292234576936}
  m_Layer: 20
  m_Name: Jaw
  m_TagString: Untagged
  m_Icon: {fileID: 0}
  m_NavMeshLayer: 0
  m_StaticEditorFlags: 0
  m_IsActive: 1
--- !u!1 &1280680779859844
GameObject:
  m_ObjectHideFlags: 1
  m_PrefabParentObject: {fileID: 0}
  m_PrefabInternal: {fileID: 100100000}
  serializedVersion: 5
  m_Component:
  - component: {fileID: 4598770876403032}
  m_Layer: 20
  m_Name: Tail1
  m_TagString: Untagged
  m_Icon: {fileID: 0}
  m_NavMeshLayer: 0
  m_StaticEditorFlags: 0
  m_IsActive: 1
--- !u!1 &1301012664112456
GameObject:
  m_ObjectHideFlags: 1
  m_PrefabParentObject: {fileID: 0}
  m_PrefabInternal: {fileID: 100100000}
  serializedVersion: 5
  m_Component:
  - component: {fileID: 4684353707666198}
  m_Layer: 20
  m_Name: R Forearm
  m_TagString: Untagged
  m_Icon: {fileID: 0}
  m_NavMeshLayer: 0
  m_StaticEditorFlags: 0
  m_IsActive: 1
--- !u!1 &1310220480035024
GameObject:
  m_ObjectHideFlags: 1
  m_PrefabParentObject: {fileID: 0}
  m_PrefabInternal: {fileID: 100100000}
  serializedVersion: 5
  m_Component:
  - component: {fileID: 4058854140134924}
  m_Layer: 20
  m_Name: R Foot
  m_TagString: Untagged
  m_Icon: {fileID: 0}
  m_NavMeshLayer: 0
  m_StaticEditorFlags: 0
  m_IsActive: 1
--- !u!1 &1324382317251946
GameObject:
  m_ObjectHideFlags: 1
  m_PrefabParentObject: {fileID: 0}
  m_PrefabInternal: {fileID: 100100000}
  serializedVersion: 5
  m_Component:
  - component: {fileID: 4801254456257544}
  m_Layer: 20
  m_Name: Eye L
  m_TagString: Untagged
  m_Icon: {fileID: 0}
  m_NavMeshLayer: 0
  m_StaticEditorFlags: 0
  m_IsActive: 1
--- !u!1 &1364968903123868
GameObject:
  m_ObjectHideFlags: 1
  m_PrefabParentObject: {fileID: 0}
  m_PrefabInternal: {fileID: 100100000}
  serializedVersion: 5
  m_Component:
  - component: {fileID: 4607709726556906}
  m_Layer: 20
  m_Name: R Ear
  m_TagString: Untagged
  m_Icon: {fileID: 0}
  m_NavMeshLayer: 0
  m_StaticEditorFlags: 0
  m_IsActive: 1
--- !u!1 &1388443037883016
GameObject:
  m_ObjectHideFlags: 1
  m_PrefabParentObject: {fileID: 0}
  m_PrefabInternal: {fileID: 100100000}
  serializedVersion: 5
  m_Component:
  - component: {fileID: 4832353951404106}
  m_Layer: 20
  m_Name: R Clavicle
  m_TagString: Untagged
  m_Icon: {fileID: 0}
  m_NavMeshLayer: 0
  m_StaticEditorFlags: 0
  m_IsActive: 1
--- !u!1 &1399955301529114
GameObject:
  m_ObjectHideFlags: 1
  m_PrefabParentObject: {fileID: 0}
  m_PrefabInternal: {fileID: 100100000}
  serializedVersion: 5
  m_Component:
  - component: {fileID: 4228799868318818}
  m_Layer: 20
  m_Name: L Thigh
  m_TagString: Untagged
  m_Icon: {fileID: 0}
  m_NavMeshLayer: 0
  m_StaticEditorFlags: 0
  m_IsActive: 1
--- !u!1 &1424560593754930
GameObject:
  m_ObjectHideFlags: 1
  m_PrefabParentObject: {fileID: 0}
  m_PrefabInternal: {fileID: 100100000}
  serializedVersion: 5
  m_Component:
  - component: {fileID: 4714962270503514}
  m_Layer: 20
  m_Name: R Hand
  m_TagString: Untagged
  m_Icon: {fileID: 0}
  m_NavMeshLayer: 0
  m_StaticEditorFlags: 0
  m_IsActive: 1
--- !u!1 &1434496334728790
GameObject:
  m_ObjectHideFlags: 0
  m_PrefabParentObject: {fileID: 0}
  m_PrefabInternal: {fileID: 100100000}
  serializedVersion: 5
  m_Component:
  - component: {fileID: 4436995309259694}
  - component: {fileID: 95153758526926730}
  - component: {fileID: 54173006123845132}
  - component: {fileID: 114041163251044646}
  - component: {fileID: 114872010490114814}
  - component: {fileID: 114203772975164668}
  - component: {fileID: 114774216774631438}
  - component: {fileID: 114651057899512976}
  - component: {fileID: 114079420064554534}
  - component: {fileID: 114660781311089964}
  - component: {fileID: 82582516283481270}
  m_Layer: 20
  m_Name: Fox Snow
  m_TagString: Player
  m_Icon: {fileID: 0}
  m_NavMeshLayer: 0
  m_StaticEditorFlags: 0
  m_IsActive: 1
--- !u!1 &1443002308163614
GameObject:
  m_ObjectHideFlags: 1
  m_PrefabParentObject: {fileID: 0}
  m_PrefabInternal: {fileID: 100100000}
  serializedVersion: 5
  m_Component:
  - component: {fileID: 4336801321545550}
  m_Layer: 20
  m_Name: L Hand
  m_TagString: Untagged
  m_Icon: {fileID: 0}
  m_NavMeshLayer: 0
  m_StaticEditorFlags: 0
  m_IsActive: 1
--- !u!1 &1446235796048648
GameObject:
  m_ObjectHideFlags: 0
  m_PrefabParentObject: {fileID: 0}
  m_PrefabInternal: {fileID: 100100000}
  serializedVersion: 5
  m_Component:
  - component: {fileID: 4334027704166700}
  m_Layer: 20
  m_Name: Meshes
  m_TagString: Untagged
  m_Icon: {fileID: 0}
  m_NavMeshLayer: 0
  m_StaticEditorFlags: 0
  m_IsActive: 1
--- !u!1 &1459558071116608
GameObject:
  m_ObjectHideFlags: 1
  m_PrefabParentObject: {fileID: 0}
  m_PrefabInternal: {fileID: 100100000}
  serializedVersion: 5
  m_Component:
  - component: {fileID: 4788434790453064}
  m_Layer: 20
  m_Name: R UpperArm
  m_TagString: Untagged
  m_Icon: {fileID: 0}
  m_NavMeshLayer: 0
  m_StaticEditorFlags: 0
  m_IsActive: 1
--- !u!1 &1503054533747536
GameObject:
  m_ObjectHideFlags: 1
  m_PrefabParentObject: {fileID: 0}
  m_PrefabInternal: {fileID: 100100000}
  serializedVersion: 5
  m_Component:
  - component: {fileID: 4980367248527866}
  - component: {fileID: 137414171096790228}
  m_Layer: 20
  m_Name: Fox
  m_TagString: Untagged
  m_Icon: {fileID: 0}
  m_NavMeshLayer: 0
  m_StaticEditorFlags: 0
  m_IsActive: 1
--- !u!1 &1530412686665544
GameObject:
  m_ObjectHideFlags: 1
  m_PrefabParentObject: {fileID: 0}
  m_PrefabInternal: {fileID: 100100000}
  serializedVersion: 5
  m_Component:
  - component: {fileID: 4721749022490708}
  m_Layer: 20
  m_Name: L Foot
  m_TagString: Untagged
  m_Icon: {fileID: 0}
  m_NavMeshLayer: 0
  m_StaticEditorFlags: 0
  m_IsActive: 1
--- !u!1 &1555869952652692
GameObject:
  m_ObjectHideFlags: 1
  m_PrefabParentObject: {fileID: 0}
  m_PrefabInternal: {fileID: 100100000}
  serializedVersion: 5
  m_Component:
  - component: {fileID: 4790742139201348}
  m_Layer: 20
  m_Name: R Calf
  m_TagString: Untagged
  m_Icon: {fileID: 0}
  m_NavMeshLayer: 0
  m_StaticEditorFlags: 0
  m_IsActive: 1
--- !u!1 &1566838936112158
GameObject:
  m_ObjectHideFlags: 1
  m_PrefabParentObject: {fileID: 0}
  m_PrefabInternal: {fileID: 100100000}
  serializedVersion: 5
  m_Component:
  - component: {fileID: 4143753530922110}
  m_Layer: 20
  m_Name: L Calf
  m_TagString: Untagged
  m_Icon: {fileID: 0}
  m_NavMeshLayer: 0
  m_StaticEditorFlags: 0
  m_IsActive: 1
--- !u!1 &1580634158111790
GameObject:
  m_ObjectHideFlags: 0
  m_PrefabParentObject: {fileID: 0}
  m_PrefabInternal: {fileID: 100100000}
  serializedVersion: 5
  m_Component:
  - component: {fileID: 4029242414252784}
  m_Layer: 20
  m_Name: Fix
  m_TagString: Untagged
  m_Icon: {fileID: 0}
  m_NavMeshLayer: 0
  m_StaticEditorFlags: 0
  m_IsActive: 1
--- !u!1 &1602103107345520
GameObject:
  m_ObjectHideFlags: 0
  m_PrefabParentObject: {fileID: 0}
  m_PrefabInternal: {fileID: 100100000}
  serializedVersion: 5
  m_Component:
  - component: {fileID: 4769301725064738}
  - component: {fileID: 114343076478648520}
  m_Layer: 20
  m_Name: (1) PivotChest
  m_TagString: Untagged
  m_Icon: {fileID: 0}
  m_NavMeshLayer: 0
  m_StaticEditorFlags: 0
  m_IsActive: 1
--- !u!1 &1612260296561546
GameObject:
  m_ObjectHideFlags: 1
  m_PrefabParentObject: {fileID: 0}
  m_PrefabInternal: {fileID: 100100000}
  serializedVersion: 5
  m_Component:
  - component: {fileID: 4013830951915700}
  m_Layer: 20
  m_Name: Eye R
  m_TagString: Untagged
  m_Icon: {fileID: 0}
  m_NavMeshLayer: 0
  m_StaticEditorFlags: 0
  m_IsActive: 1
--- !u!1 &1662720179495498
GameObject:
  m_ObjectHideFlags: 1
  m_PrefabParentObject: {fileID: 0}
  m_PrefabInternal: {fileID: 100100000}
  serializedVersion: 5
  m_Component:
  - component: {fileID: 4524533804289268}
  m_Layer: 20
  m_Name: Tail3
  m_TagString: Untagged
  m_Icon: {fileID: 0}
  m_NavMeshLayer: 0
  m_StaticEditorFlags: 0
  m_IsActive: 1
--- !u!1 &1674481458891254
GameObject:
  m_ObjectHideFlags: 0
  m_PrefabParentObject: {fileID: 0}
  m_PrefabInternal: {fileID: 100100000}
  serializedVersion: 5
  m_Component:
  - component: {fileID: 4646386365300010}
  - component: {fileID: 65575443954639910}
  - component: {fileID: 114899156184174246}
  m_Layer: 2
  m_Name: Attack Trigger Front
  m_TagString: Untagged
  m_Icon: {fileID: 0}
  m_NavMeshLayer: 0
  m_StaticEditorFlags: 0
  m_IsActive: 1
--- !u!1 &1674980842349294
GameObject:
  m_ObjectHideFlags: 1
  m_PrefabParentObject: {fileID: 0}
  m_PrefabInternal: {fileID: 100100000}
  serializedVersion: 5
  m_Component:
  - component: {fileID: 4069194768626240}
  - component: {fileID: 135282332511020996}
  - component: {fileID: 114816300165519690}
  m_Layer: 2
  m_Name: Attack Trigger Bite
  m_TagString: Untagged
  m_Icon: {fileID: 0}
  m_NavMeshLayer: 0
  m_StaticEditorFlags: 0
  m_IsActive: 1
--- !u!1 &1690189517689822
GameObject:
  m_ObjectHideFlags: 1
  m_PrefabParentObject: {fileID: 0}
  m_PrefabInternal: {fileID: 100100000}
  serializedVersion: 5
  m_Component:
  - component: {fileID: 4046105807480356}
  - component: {fileID: 136627066771245480}
  m_Layer: 20
  m_Name: Neck
  m_TagString: Untagged
  m_Icon: {fileID: 0}
  m_NavMeshLayer: 0
  m_StaticEditorFlags: 0
  m_IsActive: 1
--- !u!1 &1701131551050930
GameObject:
  m_ObjectHideFlags: 1
  m_PrefabParentObject: {fileID: 0}
  m_PrefabInternal: {fileID: 100100000}
  serializedVersion: 5
  m_Component:
  - component: {fileID: 4639949750046082}
  - component: {fileID: 137468345409121994}
  - component: {fileID: 114664420048145830}
  m_Layer: 20
  m_Name: Magic
  m_TagString: Untagged
  m_Icon: {fileID: 0}
  m_NavMeshLayer: 0
  m_StaticEditorFlags: 0
  m_IsActive: 0
--- !u!1 &1714427696833982
GameObject:
  m_ObjectHideFlags: 1
  m_PrefabParentObject: {fileID: 0}
  m_PrefabInternal: {fileID: 100100000}
  serializedVersion: 5
  m_Component:
  - component: {fileID: 4924711816336566}
  m_Layer: 20
  m_Name: R Thigh
  m_TagString: Untagged
  m_Icon: {fileID: 0}
  m_NavMeshLayer: 0
  m_StaticEditorFlags: 0
  m_IsActive: 1
--- !u!1 &1718340185306556
GameObject:
  m_ObjectHideFlags: 1
  m_PrefabParentObject: {fileID: 0}
  m_PrefabInternal: {fileID: 100100000}
  serializedVersion: 5
  m_Component:
  - component: {fileID: 4312548189879580}
  - component: {fileID: 135389434575419992}
  - component: {fileID: 114718596048581160}
  - component: {fileID: 114645012941508362}
  m_Layer: 2
  m_Name: Track Left Front
  m_TagString: Untagged
  m_Icon: {fileID: 0}
  m_NavMeshLayer: 0
  m_StaticEditorFlags: 0
  m_IsActive: 1
--- !u!1 &1737484131118640
GameObject:
  m_ObjectHideFlags: 1
  m_PrefabParentObject: {fileID: 0}
  m_PrefabInternal: {fileID: 100100000}
  serializedVersion: 5
  m_Component:
  - component: {fileID: 4900362066367702}
  m_Layer: 20
  m_Name: L HorseLink
  m_TagString: Untagged
  m_Icon: {fileID: 0}
  m_NavMeshLayer: 0
  m_StaticEditorFlags: 0
  m_IsActive: 1
--- !u!1 &1757467586876172
GameObject:
  m_ObjectHideFlags: 1
  m_PrefabParentObject: {fileID: 0}
  m_PrefabInternal: {fileID: 100100000}
  serializedVersion: 5
  m_Component:
  - component: {fileID: 4679823178294374}
  - component: {fileID: 135899048641120254}
  - component: {fileID: 114865221316073718}
  - component: {fileID: 114019089736170514}
  m_Layer: 2
  m_Name: Track Right Front
  m_TagString: Untagged
  m_Icon: {fileID: 0}
  m_NavMeshLayer: 0
  m_StaticEditorFlags: 0
  m_IsActive: 1
--- !u!1 &1757989112646226
GameObject:
  m_ObjectHideFlags: 1
  m_PrefabParentObject: {fileID: 0}
  m_PrefabInternal: {fileID: 100100000}
  serializedVersion: 5
  m_Component:
  - component: {fileID: 4424047983146230}
  - component: {fileID: 136616303975486208}
  - component: {fileID: 135046173109644476}
  m_Layer: 20
  m_Name: Head
  m_TagString: Untagged
  m_Icon: {fileID: 0}
  m_NavMeshLayer: 0
  m_StaticEditorFlags: 0
  m_IsActive: 1
--- !u!1 &1781107283091756
GameObject:
  m_ObjectHideFlags: 1
  m_PrefabParentObject: {fileID: 0}
  m_PrefabInternal: {fileID: 100100000}
  serializedVersion: 5
  m_Component:
  - component: {fileID: 4101530014079964}
  m_Layer: 20
  m_Name: CG
  m_TagString: Untagged
  m_Icon: {fileID: 0}
  m_NavMeshLayer: 0
  m_StaticEditorFlags: 0
  m_IsActive: 1
--- !u!1 &1796981011617448
GameObject:
  m_ObjectHideFlags: 1
  m_PrefabParentObject: {fileID: 0}
  m_PrefabInternal: {fileID: 100100000}
  serializedVersion: 5
  m_Component:
  - component: {fileID: 4743286357175544}
  m_Layer: 20
  m_Name: R Cheek
  m_TagString: Untagged
  m_Icon: {fileID: 0}
  m_NavMeshLayer: 0
  m_StaticEditorFlags: 0
  m_IsActive: 1
--- !u!1 &1928110530340428
GameObject:
  m_ObjectHideFlags: 1
  m_PrefabParentObject: {fileID: 0}
  m_PrefabInternal: {fileID: 100100000}
  serializedVersion: 5
  m_Component:
  - component: {fileID: 4315092735530800}
  m_Layer: 20
  m_Name: L Ear
  m_TagString: Untagged
  m_Icon: {fileID: 0}
  m_NavMeshLayer: 0
  m_StaticEditorFlags: 0
  m_IsActive: 1
--- !u!1 &1938306453350598
GameObject:
  m_ObjectHideFlags: 1
  m_PrefabParentObject: {fileID: 0}
  m_PrefabInternal: {fileID: 100100000}
  serializedVersion: 5
  m_Component:
  - component: {fileID: 4961981866179800}
  m_Layer: 20
  m_Name: Pelvis
  m_TagString: Untagged
  m_Icon: {fileID: 0}
  m_NavMeshLayer: 0
  m_StaticEditorFlags: 0
  m_IsActive: 1
--- !u!1 &1942508179882278
GameObject:
  m_ObjectHideFlags: 1
  m_PrefabParentObject: {fileID: 0}
  m_PrefabInternal: {fileID: 100100000}
  serializedVersion: 5
  m_Component:
  - component: {fileID: 4594667191894656}
  m_Layer: 20
  m_Name: L UpperArm
  m_TagString: Untagged
  m_Icon: {fileID: 0}
  m_NavMeshLayer: 0
  m_StaticEditorFlags: 0
  m_IsActive: 1
--- !u!1 &1944196176141214
GameObject:
  m_ObjectHideFlags: 1
  m_PrefabParentObject: {fileID: 0}
  m_PrefabInternal: {fileID: 100100000}
  serializedVersion: 5
  m_Component:
  - component: {fileID: 4288370084800440}
  m_Layer: 20
  m_Name: Tail
  m_TagString: Untagged
  m_Icon: {fileID: 0}
  m_NavMeshLayer: 0
  m_StaticEditorFlags: 0
  m_IsActive: 1
--- !u!1 &1969664883548836
GameObject:
  m_ObjectHideFlags: 1
  m_PrefabParentObject: {fileID: 0}
  m_PrefabInternal: {fileID: 100100000}
  serializedVersion: 5
  m_Component:
  - component: {fileID: 4654953414396988}
  m_Layer: 20
  m_Name: Tongue
  m_TagString: Untagged
  m_Icon: {fileID: 0}
  m_NavMeshLayer: 0
  m_StaticEditorFlags: 0
  m_IsActive: 1
--- !u!1 &1974596261285554
GameObject:
  m_ObjectHideFlags: 0
  m_PrefabParentObject: {fileID: 0}
  m_PrefabInternal: {fileID: 100100000}
  serializedVersion: 5
  m_Component:
  - component: {fileID: 4526538231673172}
  - component: {fileID: 114210783200298748}
  m_Layer: 20
  m_Name: (0) PivotHip
  m_TagString: Untagged
  m_Icon: {fileID: 0}
  m_NavMeshLayer: 0
  m_StaticEditorFlags: 0
  m_IsActive: 1
--- !u!1 &1997098306254028
GameObject:
  m_ObjectHideFlags: 1
  m_PrefabParentObject: {fileID: 0}
  m_PrefabInternal: {fileID: 100100000}
  serializedVersion: 5
  m_Component:
  - component: {fileID: 4349148392415600}
  - component: {fileID: 136306916368414020}
  m_Layer: 20
  m_Name: Spine2
  m_TagString: Untagged
  m_Icon: {fileID: 0}
  m_NavMeshLayer: 0
  m_StaticEditorFlags: 0
  m_IsActive: 1
--- !u!4 &4013830951915700
Transform:
  m_ObjectHideFlags: 1
  m_PrefabParentObject: {fileID: 0}
  m_PrefabInternal: {fileID: 100100000}
  m_GameObject: {fileID: 1612260296561546}
  m_LocalRotation: {x: 0.7709472, y: -0.6043575, z: 0.08241815, w: 0.1833023}
  m_LocalPosition: {x: -0.009831314, y: 0.1298172, z: -0.039710406}
  m_LocalScale: {x: 0.9999986, y: 0.99999976, z: 1.0000001}
  m_Children: []
  m_Father: {fileID: 4424047983146230}
  m_RootOrder: 1
  m_LocalEulerAnglesHint: {x: 0, y: 0, z: 0}
--- !u!4 &4029242414252784
Transform:
  m_ObjectHideFlags: 1
  m_PrefabParentObject: {fileID: 0}
  m_PrefabInternal: {fileID: 100100000}
  m_GameObject: {fileID: 1580634158111790}
  m_LocalRotation: {x: 0, y: 0, z: 0, w: 1}
  m_LocalPosition: {x: 0, y: -0.021, z: 0}
  m_LocalScale: {x: 1, y: 1, z: 1}
  m_Children:
  - {fileID: 4101530014079964}
  m_Father: {fileID: 4436995309259694}
  m_RootOrder: 4
  m_LocalEulerAnglesHint: {x: 0, y: 0, z: 0}
--- !u!4 &4046105807480356
Transform:
  m_ObjectHideFlags: 1
  m_PrefabParentObject: {fileID: 0}
  m_PrefabInternal: {fileID: 100100000}
  m_GameObject: {fileID: 1690189517689822}
  m_LocalRotation: {x: -0.000000316865, y: -0.0000005102307, z: -0.024341527, w: 0.9997037}
  m_LocalPosition: {x: -0.13371891, y: 0.016578559, z: -0.000000007323833}
  m_LocalScale: {x: 0.9999998, y: 0.9999998, z: 1}
  m_Children:
  - {fileID: 4424047983146230}
  - {fileID: 4656842157299460}
  - {fileID: 4832353951404106}
  m_Father: {fileID: 4349148392415600}
  m_RootOrder: 0
  m_LocalEulerAnglesHint: {x: 0, y: 0, z: 0}
--- !u!4 &4058854140134924
Transform:
  m_ObjectHideFlags: 1
  m_PrefabParentObject: {fileID: 0}
  m_PrefabInternal: {fileID: 100100000}
  m_GameObject: {fileID: 1310220480035024}
  m_LocalRotation: {x: 0.090019286, y: 0.011128639, z: 0.024544932, w: 0.99557537}
  m_LocalPosition: {x: -0.13617477, y: -0.000000038146972, z: 0.000000026226044}
  m_LocalScale: {x: 1.24361, y: 1.24361, z: 1.24361}
  m_Children:
  - {fileID: 4128389326394770}
  m_Father: {fileID: 4435392296721936}
  m_RootOrder: 0
  m_LocalEulerAnglesHint: {x: 0, y: 0, z: 0}
--- !u!4 &4069194768626240
Transform:
  m_ObjectHideFlags: 1
  m_PrefabParentObject: {fileID: 0}
  m_PrefabInternal: {fileID: 100100000}
  m_GameObject: {fileID: 1674980842349294}
  m_LocalRotation: {x: 0, y: 0, z: 0, w: 1}
  m_LocalPosition: {x: 0.138, y: 0.384, z: -0.026}
  m_LocalScale: {x: 1, y: 1, z: 1}
  m_Children: []
  m_Father: {fileID: 4424047983146230}
  m_RootOrder: 7
  m_LocalEulerAnglesHint: {x: 0, y: 0, z: 0}
--- !u!4 &4101530014079964
Transform:
  m_ObjectHideFlags: 1
  m_PrefabParentObject: {fileID: 0}
  m_PrefabInternal: {fileID: 100100000}
  m_GameObject: {fileID: 1781107283091756}
  m_LocalRotation: {x: -0.50000036, y: 0.4999997, z: 0.4999997, w: 0.50000036}
  m_LocalPosition: {x: 0, y: 0.5206614, z: 0}
  m_LocalScale: {x: 1, y: 1, z: 1}
  m_Children:
  - {fileID: 4961981866179800}
  m_Father: {fileID: 4029242414252784}
  m_RootOrder: 0
  m_LocalEulerAnglesHint: {x: 0, y: 0, z: 0}
--- !u!4 &4128389326394770
Transform:
  m_ObjectHideFlags: 1
  m_PrefabParentObject: {fileID: 0}
  m_PrefabInternal: {fileID: 100100000}
  m_GameObject: {fileID: 1221866835988590}
  m_LocalRotation: {x: 0.50300854, y: 0.50300914, z: 0.49697334, w: -0.49697256}
  m_LocalPosition: {x: -0.022, y: 0.073, z: -0.011}
  m_LocalScale: {x: 1, y: 1, z: 1}
  m_Children: []
  m_Father: {fileID: 4058854140134924}
  m_RootOrder: 0
  m_LocalEulerAnglesHint: {x: 0, y: 0, z: 0}
--- !u!4 &4143753530922110
Transform:
  m_ObjectHideFlags: 1
  m_PrefabParentObject: {fileID: 0}
  m_PrefabInternal: {fileID: 100100000}
  m_GameObject: {fileID: 1566838936112158}
  m_LocalRotation: {x: -0.00000000848013, y: -0.000000005357363, z: 0.18191694, w: 0.9833139}
  m_LocalPosition: {x: -0.2201573, y: 0, z: -0.0000000023841857}
  m_LocalScale: {x: 1.0000001, y: 1, z: 1}
  m_Children:
  - {fileID: 4900362066367702}
  m_Father: {fileID: 4228799868318818}
  m_RootOrder: 0
  m_LocalEulerAnglesHint: {x: 0, y: 0, z: 0}
--- !u!4 &4228799868318818
Transform:
  m_ObjectHideFlags: 1
  m_PrefabParentObject: {fileID: 0}
  m_PrefabInternal: {fileID: 100100000}
  m_GameObject: {fileID: 1399955301529114}
  m_LocalRotation: {x: -0.6241188, y: 0.7767225, z: -0.056314614, w: 0.06329752}
  m_LocalPosition: {x: 0.07538156, y: 0.028153304, z: 0.06541377}
  m_LocalScale: {x: 0.9216002, y: 0.9216002, z: 0.9216002}
  m_Children:
  - {fileID: 4143753530922110}
  m_Father: {fileID: 4234223790612768}
  m_RootOrder: 0
  m_LocalEulerAnglesHint: {x: 0, y: 0, z: 0}
--- !u!4 &4234223790612768
Transform:
  m_ObjectHideFlags: 1
  m_PrefabParentObject: {fileID: 0}
  m_PrefabInternal: {fileID: 100100000}
  m_GameObject: {fileID: 1020551640068736}
  m_LocalRotation: {x: -0.0000016900473, y: 0.0000011284686, z: -0.72630143, w: 0.6873764}
  m_LocalPosition: {x: -0.023962783, y: 0.0768166, z: -0.00000020484877}
  m_LocalScale: {x: 1, y: 1, z: 1}
  m_Children:
  - {fileID: 4228799868318818}
  - {fileID: 4924711816336566}
  - {fileID: 4815359111538158}
  - {fileID: 4288370084800440}
  m_Father: {fileID: 4961981866179800}
  m_RootOrder: 0
  m_LocalEulerAnglesHint: {x: 0, y: 0, z: 0}
--- !u!4 &4276821215342890
Transform:
  m_ObjectHideFlags: 1
  m_PrefabParentObject: {fileID: 0}
  m_PrefabInternal: {fileID: 100100000}
  m_GameObject: {fileID: 1123271402119048}
  m_LocalRotation: {x: -3.400621e-10, y: -1.7395188e-10, z: 0.16240333, w: 0.9867245}
  m_LocalPosition: {x: -0.2490814, y: -0.000000038146972, z: 0.000000028610229}
  m_LocalScale: {x: 0.99999976, y: 0.9999999, z: 0.9999998}
  m_Children:
  - {fileID: 4336801321545550}
  m_Father: {fileID: 4594667191894656}
  m_RootOrder: 0
  m_LocalEulerAnglesHint: {x: 0, y: 0, z: 0}
--- !u!4 &4288370084800440
Transform:
  m_ObjectHideFlags: 1
  m_PrefabParentObject: {fileID: 0}
  m_PrefabInternal: {fileID: 100100000}
  m_GameObject: {fileID: 1944196176141214}
  m_LocalRotation: {x: -0.00000012662011, y: -0.0000023488271, z: 0.9330867, w: -0.35965168}
  m_LocalPosition: {x: 0.22046302, y: -0.035575677, z: -0.00000010068426}
  m_LocalScale: {x: 1, y: 1, z: 1}
  m_Children:
  - {fileID: 4598770876403032}
  m_Father: {fileID: 4234223790612768}
  m_RootOrder: 3
  m_LocalEulerAnglesHint: {x: 0, y: 0, z: 0}
--- !u!4 &4312548189879580
Transform:
  m_ObjectHideFlags: 1
  m_PrefabParentObject: {fileID: 0}
  m_PrefabInternal: {fileID: 100100000}
  m_GameObject: {fileID: 1718340185306556}
  m_LocalRotation: {x: -0.51429605, y: -0.51428235, z: 0.4852843, w: -0.48529625}
  m_LocalPosition: {x: -0.017, y: -0.05, z: -0.006}
  m_LocalScale: {x: 1, y: 1, z: 1}
  m_Children: []
  m_Father: {fileID: 4336801321545550}
  m_RootOrder: 0
  m_LocalEulerAnglesHint: {x: 0, y: 0, z: 0}
--- !u!4 &4315092735530800
Transform:
  m_ObjectHideFlags: 1
  m_PrefabParentObject: {fileID: 0}
  m_PrefabInternal: {fileID: 100100000}
  m_GameObject: {fileID: 1928110530340428}
  m_LocalRotation: {x: -0.58708906, y: 0.25988606, z: 0.106759034, w: 0.75920236}
  m_LocalPosition: {x: -0.08037048, y: 0.0309663, z: 0.065457724}
  m_LocalScale: {x: 1.4405761, y: 1.3570935, z: 0.99999994}
  m_Children: []
  m_Father: {fileID: 4424047983146230}
  m_RootOrder: 4
  m_LocalEulerAnglesHint: {x: 0, y: 0, z: 0}
--- !u!4 &4334027704166700
Transform:
  m_ObjectHideFlags: 1
  m_PrefabParentObject: {fileID: 0}
  m_PrefabInternal: {fileID: 100100000}
  m_GameObject: {fileID: 1446235796048648}
  m_LocalRotation: {x: 0, y: 0, z: 0, w: 1}
  m_LocalPosition: {x: 0, y: 0, z: 0}
  m_LocalScale: {x: 1, y: 1, z: 1}
  m_Children:
  - {fileID: 4980367248527866}
  - {fileID: 4639949750046082}
  m_Father: {fileID: 4436995309259694}
  m_RootOrder: 3
  m_LocalEulerAnglesHint: {x: 0, y: 0, z: 0}
--- !u!4 &4336801321545550
Transform:
  m_ObjectHideFlags: 1
  m_PrefabParentObject: {fileID: 0}
  m_PrefabInternal: {fileID: 100100000}
  m_GameObject: {fileID: 1443002308163614}
  m_LocalRotation: {x: -0.03476243, y: 0.0019085695, z: -0.06883495, w: 0.9970204}
  m_LocalPosition: {x: -0.20886013, y: 0, z: -0.000000038146972}
  m_LocalScale: {x: 1.24361, y: 1.24361, z: 1.24361}
  m_Children:
  - {fileID: 4312548189879580}
  m_Father: {fileID: 4276821215342890}
  m_RootOrder: 0
  m_LocalEulerAnglesHint: {x: 0, y: 0, z: 0}
--- !u!4 &4349148392415600
Transform:
  m_ObjectHideFlags: 1
  m_PrefabParentObject: {fileID: 0}
  m_PrefabInternal: {fileID: 100100000}
  m_GameObject: {fileID: 1997098306254028}
  m_LocalRotation: {x: -0.000000054858194, y: -0.00000020626217, z: 0.037515257, w: 0.99929607}
  m_LocalPosition: {x: -0.15107436, y: -0.00011993408, z: -3.1868694e-10}
  m_LocalScale: {x: 1, y: 1, z: 1}
  m_Children:
  - {fileID: 4046105807480356}
  m_Father: {fileID: 4815359111538158}
  m_RootOrder: 0
  m_LocalEulerAnglesHint: {x: 0, y: 0, z: 0}
--- !u!4 &4378049535708794
Transform:
  m_ObjectHideFlags: 1
  m_PrefabParentObject: {fileID: 0}
  m_PrefabInternal: {fileID: 100100000}
  m_GameObject: {fileID: 1193715922181044}
  m_LocalRotation: {x: 0.49697202, y: 0.4969726, z: 0.5030099, w: -0.503009}
  m_LocalPosition: {x: -0.022, y: 0.072, z: 0.011}
  m_LocalScale: {x: 1, y: 1, z: 1}
  m_Children: []
  m_Father: {fileID: 4721749022490708}
  m_RootOrder: 0
  m_LocalEulerAnglesHint: {x: 0, y: 0, z: 0}
--- !u!4 &4424047983146230
Transform:
  m_ObjectHideFlags: 1
  m_PrefabParentObject: {fileID: 0}
  m_PrefabInternal: {fileID: 100100000}
  m_GameObject: {fileID: 1757989112646226}
  m_LocalRotation: {x: 0.0000005694352, y: -0.0000013323858, z: 0.56470895, w: 0.82529014}
  m_LocalPosition: {x: -0.17108668, y: -0.029334793, z: -0.00000008136237}
  m_LocalScale: {x: 1, y: 1, z: 1}
  m_Children:
  - {fileID: 4801254456257544}
  - {fileID: 4013830951915700}
  - {fileID: 4957292234576936}
  - {fileID: 4739536109678572}
  - {fileID: 4315092735530800}
  - {fileID: 4743286357175544}
  - {fileID: 4607709726556906}
  - {fileID: 4069194768626240}
  m_Father: {fileID: 4046105807480356}
  m_RootOrder: 0
  m_LocalEulerAnglesHint: {x: 0, y: 0, z: 0}
--- !u!4 &4435392296721936
Transform:
  m_ObjectHideFlags: 1
  m_PrefabParentObject: {fileID: 0}
  m_PrefabInternal: {fileID: 100100000}
  m_GameObject: {fileID: 1211120830108304}
  m_LocalRotation: {x: 0.0000000010660486, y: 0.0000000015968181, z: -0.33694983,
    w: 0.94152266}
  m_LocalPosition: {x: -0.14511481, y: -0.000000114440915, z: -0.000000011920928}
  m_LocalScale: {x: 0.99999994, y: 1.0000002, z: 1}
  m_Children:
  - {fileID: 4058854140134924}
  m_Father: {fileID: 4790742139201348}
  m_RootOrder: 0
  m_LocalEulerAnglesHint: {x: 0, y: 0, z: 0}
--- !u!4 &4436995309259694
Transform:
  m_ObjectHideFlags: 1
  m_PrefabParentObject: {fileID: 0}
  m_PrefabInternal: {fileID: 100100000}
  m_GameObject: {fileID: 1434496334728790}
  m_LocalRotation: {x: 0, y: 1, z: 0, w: 0}
  m_LocalPosition: {x: 17.97, y: 0, z: 17.27}
  m_LocalScale: {x: 0.85, y: 0.85, z: 0.85}
  m_Children:
  - {fileID: 4526538231673172}
  - {fileID: 4769301725064738}
  - {fileID: 4780979748043036}
  - {fileID: 4334027704166700}
  - {fileID: 4029242414252784}
  - {fileID: 4646386365300010}
  m_Father: {fileID: 0}
  m_RootOrder: 0
  m_LocalEulerAnglesHint: {x: 0, y: 180, z: 0}
--- !u!4 &4524533804289268
Transform:
  m_ObjectHideFlags: 1
  m_PrefabParentObject: {fileID: 0}
  m_PrefabInternal: {fileID: 100100000}
  m_GameObject: {fileID: 1662720179495498}
  m_LocalRotation: {x: -6.419796e-14, y: 0.00000043618041, z: -0.15726145, w: 0.987557}
  m_LocalPosition: {x: -0.15462738, y: -0.000117034906, z: -3.2494427e-10}
  m_LocalScale: {x: 0.9999999, y: 0.9999999, z: 1}
  m_Children: []
  m_Father: {fileID: 4731270293174282}
  m_RootOrder: 0
  m_LocalEulerAnglesHint: {x: 0, y: 0, z: 0}
--- !u!4 &4526538231673172
Transform:
  m_ObjectHideFlags: 1
  m_PrefabParentObject: {fileID: 0}
  m_PrefabInternal: {fileID: 100100000}
  m_GameObject: {fileID: 1974596261285554}
  m_LocalRotation: {x: 0, y: 0, z: 0, w: 1}
  m_LocalPosition: {x: -0.002, y: 0.516, z: -0.077}
  m_LocalScale: {x: 1, y: 1, z: 1}
  m_Children: []
  m_Father: {fileID: 4436995309259694}
  m_RootOrder: 0
  m_LocalEulerAnglesHint: {x: 0, y: 0, z: 0}
--- !u!4 &4594667191894656
Transform:
  m_ObjectHideFlags: 1
  m_PrefabParentObject: {fileID: 0}
  m_PrefabInternal: {fileID: 100100000}
  m_GameObject: {fileID: 1942508179882278}
  m_LocalRotation: {x: -0.39847684, y: -0.56765044, z: 0.44899315, w: 0.5633776}
  m_LocalPosition: {x: -0.0813898, y: -0.000000038146972, z: 0}
  m_LocalScale: {x: 1, y: 0.9999998, z: 1}
  m_Children:
  - {fileID: 4276821215342890}
  m_Father: {fileID: 4656842157299460}
  m_RootOrder: 0
  m_LocalEulerAnglesHint: {x: 0, y: 0, z: 0}
--- !u!4 &4598770876403032
Transform:
  m_ObjectHideFlags: 1
  m_PrefabParentObject: {fileID: 0}
  m_PrefabInternal: {fileID: 100100000}
  m_GameObject: {fileID: 1280680779859844}
  m_LocalRotation: {x: -0.00000032596046, y: 0.0000008217422, z: -0.008845657, w: 0.9999609}
  m_LocalPosition: {x: -0.15459153, y: -0.00012313842, z: -2.600427e-10}
  m_LocalScale: {x: 1.0000006, y: 1.0000006, z: 1}
  m_Children:
  - {fileID: 4731270293174282}
  m_Father: {fileID: 4288370084800440}
  m_RootOrder: 0
  m_LocalEulerAnglesHint: {x: 0, y: 0, z: 0}
--- !u!4 &4607709726556906
Transform:
  m_ObjectHideFlags: 1
  m_PrefabParentObject: {fileID: 0}
  m_PrefabInternal: {fileID: 100100000}
  m_GameObject: {fileID: 1364968903123868}
  m_LocalRotation: {x: 0.5870888, y: -0.25988647, z: 0.106757544, w: 0.7592026}
  m_LocalPosition: {x: -0.08037056, y: 0.030966682, z: -0.06545755}
  m_LocalScale: {x: 1.4405767, y: 1.3570942, z: 1}
  m_Children: []
  m_Father: {fileID: 4424047983146230}
  m_RootOrder: 6
  m_LocalEulerAnglesHint: {x: 0, y: 0, z: 0}
--- !u!4 &4639949750046082
Transform:
  m_ObjectHideFlags: 1
  m_PrefabParentObject: {fileID: 0}
  m_PrefabInternal: {fileID: 100100000}
  m_GameObject: {fileID: 1701131551050930}
  m_LocalRotation: {x: -0.7071068, y: -0, z: -0, w: 0.7071068}
  m_LocalPosition: {x: 0, y: 0, z: 0}
  m_LocalScale: {x: 1, y: 1, z: 1}
  m_Children: []
  m_Father: {fileID: 4334027704166700}
  m_RootOrder: 1
  m_LocalEulerAnglesHint: {x: 0, y: 0, z: 0}
--- !u!4 &4646386365300010
Transform:
  m_ObjectHideFlags: 1
  m_PrefabParentObject: {fileID: 0}
  m_PrefabInternal: {fileID: 100100000}
  m_GameObject: {fileID: 1674481458891254}
  m_LocalRotation: {x: 0, y: 0, z: 0, w: 1}
  m_LocalPosition: {x: -0.004, y: 0, z: 0.943}
  m_LocalScale: {x: 1, y: 1, z: 1}
  m_Children: []
  m_Father: {fileID: 4436995309259694}
  m_RootOrder: 5
  m_LocalEulerAnglesHint: {x: 0, y: 0, z: 0}
--- !u!4 &4654953414396988
Transform:
  m_ObjectHideFlags: 1
  m_PrefabParentObject: {fileID: 0}
  m_PrefabInternal: {fileID: 100100000}
  m_GameObject: {fileID: 1969664883548836}
  m_LocalRotation: {x: 0.00000029046635, y: -0.0000014896508, z: 0.0065051825, w: 0.99997884}
  m_LocalPosition: {x: -0.035617944, y: -0.011794128, z: -0.00000083213905}
  m_LocalScale: {x: 1, y: 1, z: 1}
  m_Children: []
  m_Father: {fileID: 4957292234576936}
  m_RootOrder: 0
  m_LocalEulerAnglesHint: {x: 0, y: 0, z: 0}
--- !u!4 &4656842157299460
Transform:
  m_ObjectHideFlags: 1
  m_PrefabParentObject: {fileID: 0}
  m_PrefabInternal: {fileID: 100100000}
  m_GameObject: {fileID: 1170791818229620}
  m_LocalRotation: {x: -0.6966529, y: -0.03898177, z: 0.7163402, w: 0.0034484703}
  m_LocalPosition: {x: 0.06169098, y: 0.037654687, z: -0.00000043060862}
  m_LocalScale: {x: 0.9216, y: 0.9216, z: 0.9216}
  m_Children:
  - {fileID: 4594667191894656}
  m_Father: {fileID: 4046105807480356}
  m_RootOrder: 1
  m_LocalEulerAnglesHint: {x: 0, y: 0, z: 0}
--- !u!4 &4679823178294374
Transform:
  m_ObjectHideFlags: 1
  m_PrefabParentObject: {fileID: 0}
  m_PrefabInternal: {fileID: 100100000}
  m_GameObject: {fileID: 1757467586876172}
  m_LocalRotation: {x: -0.48528436, y: -0.48529753, z: 0.514296, w: -0.51428103}
  m_LocalPosition: {x: -0.017, y: -0.05, z: 0.006}
  m_LocalScale: {x: 1, y: 1, z: 1}
  m_Children: []
  m_Father: {fileID: 4714962270503514}
  m_RootOrder: 0
  m_LocalEulerAnglesHint: {x: 0, y: 0, z: 0}
--- !u!4 &4684353707666198
Transform:
  m_ObjectHideFlags: 1
  m_PrefabParentObject: {fileID: 0}
  m_PrefabInternal: {fileID: 100100000}
  m_GameObject: {fileID: 1301012664112456}
  m_LocalRotation: {x: -1.9611661e-10, y: 2.6712297e-11, z: 0.16240333, w: 0.9867245}
  m_LocalPosition: {x: -0.24908145, y: -0.000000076293944, z: 0.000000038146972}
  m_LocalScale: {x: 0.99999994, y: 1.0000001, z: 1}
  m_Children:
  - {fileID: 4714962270503514}
  m_Father: {fileID: 4788434790453064}
  m_RootOrder: 0
  m_LocalEulerAnglesHint: {x: 0, y: 0, z: 0}
--- !u!4 &4714962270503514
Transform:
  m_ObjectHideFlags: 1
  m_PrefabParentObject: {fileID: 0}
  m_PrefabInternal: {fileID: 100100000}
  m_GameObject: {fileID: 1424560593754930}
  m_LocalRotation: {x: 0.034762435, y: -0.0019085698, z: -0.06883495, w: 0.9970204}
  m_LocalPosition: {x: -0.2088601, y: 0, z: -0.000000009536743}
  m_LocalScale: {x: 1.24361, y: 1.24361, z: 1.24361}
  m_Children:
  - {fileID: 4679823178294374}
  m_Father: {fileID: 4684353707666198}
  m_RootOrder: 0
  m_LocalEulerAnglesHint: {x: 0, y: 0, z: 0}
--- !u!4 &4721749022490708
Transform:
  m_ObjectHideFlags: 1
  m_PrefabParentObject: {fileID: 0}
  m_PrefabInternal: {fileID: 100100000}
  m_GameObject: {fileID: 1530412686665544}
  m_LocalRotation: {x: -0.09001928, y: -0.011128725, z: 0.02454494, w: 0.99557537}
  m_LocalPosition: {x: -0.1361749, y: 0.000000076293944, z: -0.000000009536743}
  m_LocalScale: {x: 1.24361, y: 1.24361, z: 1.24361}
  m_Children:
  - {fileID: 4378049535708794}
  m_Father: {fileID: 4900362066367702}
  m_RootOrder: 0
  m_LocalEulerAnglesHint: {x: 0, y: 0, z: 0}
--- !u!4 &4731270293174282
Transform:
  m_ObjectHideFlags: 1
  m_PrefabParentObject: {fileID: 0}
  m_PrefabInternal: {fileID: 100100000}
  m_GameObject: {fileID: 1202833975254856}
  m_LocalRotation: {x: -7.635607e-14, y: 0.00000026396182, z: -0.09516938, w: 0.9954611}
  m_LocalPosition: {x: -0.15461256, y: -0.000120773315, z: -3.3571268e-10}
  m_LocalScale: {x: 1, y: 1, z: 1}
  m_Children:
  - {fileID: 4524533804289268}
  m_Father: {fileID: 4598770876403032}
  m_RootOrder: 0
  m_LocalEulerAnglesHint: {x: 0, y: 0, z: 0}
--- !u!4 &4739536109678572
Transform:
  m_ObjectHideFlags: 1
  m_PrefabParentObject: {fileID: 0}
  m_PrefabInternal: {fileID: 100100000}
  m_GameObject: {fileID: 1019092972926516}
  m_LocalRotation: {x: 0.049700364, y: 0.55391806, z: -0.074939154, w: 0.8277009}
  m_LocalPosition: {x: 0.054028016, y: 0.20616192, z: 0.00001244714}
  m_LocalScale: {x: 1.0000001, y: 0.99999946, z: 1}
  m_Children: []
  m_Father: {fileID: 4424047983146230}
  m_RootOrder: 3
  m_LocalEulerAnglesHint: {x: 0, y: 0, z: 0}
--- !u!4 &4743286357175544
Transform:
  m_ObjectHideFlags: 1
  m_PrefabParentObject: {fileID: 0}
  m_PrefabInternal: {fileID: 100100000}
  m_GameObject: {fileID: 1796981011617448}
  m_LocalRotation: {x: -0.049700312, y: -0.55391777, z: -0.07494227, w: 0.82770085}
  m_LocalPosition: {x: 0.05402771, y: 0.20616187, z: -0.0000112802745}
  m_LocalScale: {x: 1, y: 0.9999996, z: 0.9999997}
  m_Children: []
  m_Father: {fileID: 4424047983146230}
  m_RootOrder: 5
  m_LocalEulerAnglesHint: {x: 0, y: 0, z: 0}
--- !u!4 &4769301725064738
Transform:
  m_ObjectHideFlags: 1
  m_PrefabParentObject: {fileID: 0}
  m_PrefabInternal: {fileID: 100100000}
  m_GameObject: {fileID: 1602103107345520}
  m_LocalRotation: {x: 0, y: 0, z: 0, w: 1}
  m_LocalPosition: {x: 0.013, y: 0.516, z: 0.49}
  m_LocalScale: {x: 1, y: 1, z: 1}
  m_Children: []
  m_Father: {fileID: 4436995309259694}
  m_RootOrder: 1
  m_LocalEulerAnglesHint: {x: 0, y: 0, z: 0}
--- !u!4 &4780979748043036
Transform:
  m_ObjectHideFlags: 1
  m_PrefabParentObject: {fileID: 0}
  m_PrefabInternal: {fileID: 100100000}
  m_GameObject: {fileID: 1261372224718620}
  m_LocalRotation: {x: 0, y: 0, z: 0, w: 1}
  m_LocalPosition: {x: 0.006, y: 0.717, z: 0.22}
  m_LocalScale: {x: 1, y: 1, z: 1}
  m_Children: []
  m_Father: {fileID: 4436995309259694}
  m_RootOrder: 2
  m_LocalEulerAnglesHint: {x: 0, y: 0, z: 0}
--- !u!4 &4788434790453064
Transform:
  m_ObjectHideFlags: 1
  m_PrefabParentObject: {fileID: 0}
  m_PrefabInternal: {fileID: 100100000}
  m_GameObject: {fileID: 1459558071116608}
  m_LocalRotation: {x: 0.39847687, y: 0.56765056, z: 0.4489931, w: 0.56337756}
  m_LocalPosition: {x: -0.08138974, y: -0.00000015258789, z: -0.000000038146972}
  m_LocalScale: {x: 0.99999994, y: 1.0000002, z: 0.99999976}
  m_Children:
  - {fileID: 4684353707666198}
  m_Father: {fileID: 4832353951404106}
  m_RootOrder: 0
  m_LocalEulerAnglesHint: {x: 0, y: 0, z: 0}
--- !u!4 &4790742139201348
Transform:
  m_ObjectHideFlags: 1
  m_PrefabParentObject: {fileID: 0}
  m_PrefabInternal: {fileID: 100100000}
  m_GameObject: {fileID: 1555869952652692}
  m_LocalRotation: {x: 0.000000010666589, y: -0.0000000013415822, z: 0.18191694, w: 0.9833139}
  m_LocalPosition: {x: -0.22015701, y: -0.000000038146972, z: 0.000000007152557}
  m_LocalScale: {x: 0.9999999, y: 0.99999964, z: 0.9999999}
  m_Children:
  - {fileID: 4435392296721936}
  m_Father: {fileID: 4924711816336566}
  m_RootOrder: 0
  m_LocalEulerAnglesHint: {x: 0, y: 0, z: 0}
--- !u!4 &4801254456257544
Transform:
  m_ObjectHideFlags: 1
  m_PrefabParentObject: {fileID: 0}
  m_PrefabInternal: {fileID: 100100000}
  m_GameObject: {fileID: 1324382317251946}
  m_LocalRotation: {x: 0.18330361, y: 0.08241892, z: -0.60435784, w: 0.7709465}
  m_LocalPosition: {x: -0.009831467, y: 0.12981696, z: 0.039705668}
  m_LocalScale: {x: 0.9999988, y: 0.9999999, z: 1.0000002}
  m_Children: []
  m_Father: {fileID: 4424047983146230}
  m_RootOrder: 0
  m_LocalEulerAnglesHint: {x: 0, y: 0, z: 0}
--- !u!4 &4815359111538158
Transform:
  m_ObjectHideFlags: 1
  m_PrefabParentObject: {fileID: 0}
  m_PrefabInternal: {fileID: 100100000}
  m_GameObject: {fileID: 1097109082778744}
  m_LocalRotation: {x: -0.000000062664014, y: -0.00000020598156, z: 0.037515257, w: 0.99929607}
  m_LocalPosition: {x: -0.15107429, y: -0.000119972225, z: -3.1664968e-10}
  m_LocalScale: {x: 1.0000005, y: 1.0000005, z: 1}
  m_Children:
  - {fileID: 4349148392415600}
  m_Father: {fileID: 4234223790612768}
  m_RootOrder: 2
  m_LocalEulerAnglesHint: {x: 0, y: 0, z: 0}
--- !u!4 &4832353951404106
Transform:
  m_ObjectHideFlags: 1
  m_PrefabParentObject: {fileID: 0}
  m_PrefabInternal: {fileID: 100100000}
  m_GameObject: {fileID: 1388443037883016}
  m_LocalRotation: {x: 0.6966537, y: 0.03897942, z: 0.7163395, w: 0.0034460258}
  m_LocalPosition: {x: 0.06169098, y: 0.037654687, z: 0.0000006472648}
  m_LocalScale: {x: 0.9216, y: 0.9216, z: 0.9216}
  m_Children:
  - {fileID: 4788434790453064}
  m_Father: {fileID: 4046105807480356}
  m_RootOrder: 2
  m_LocalEulerAnglesHint: {x: 0, y: 0, z: 0}
--- !u!4 &4900362066367702
Transform:
  m_ObjectHideFlags: 1
  m_PrefabParentObject: {fileID: 0}
  m_PrefabInternal: {fileID: 100100000}
  m_GameObject: {fileID: 1737484131118640}
  m_LocalRotation: {x: -0.000000003671856, y: 0.0000000013140747, z: -0.33694983,
    w: 0.94152266}
  m_LocalPosition: {x: -0.14511485, y: 0.000000076293944, z: 0}
  m_LocalScale: {x: 1.0000001, y: 1.0000004, z: 1}
  m_Children:
  - {fileID: 4721749022490708}
  m_Father: {fileID: 4143753530922110}
  m_RootOrder: 0
  m_LocalEulerAnglesHint: {x: 0, y: 0, z: 0}
--- !u!4 &4924711816336566
Transform:
  m_ObjectHideFlags: 1
  m_PrefabParentObject: {fileID: 0}
  m_PrefabInternal: {fileID: 100100000}
  m_GameObject: {fileID: 1714427696833982}
  m_LocalRotation: {x: -0.624119, y: 0.7767224, z: 0.05631626, w: -0.06329548}
  m_LocalPosition: {x: 0.0753816, y: 0.028153649, z: -0.06541323}
  m_LocalScale: {x: 0.9216002, y: 0.9216002, z: 0.9216002}
  m_Children:
  - {fileID: 4790742139201348}
  m_Father: {fileID: 4234223790612768}
  m_RootOrder: 1
  m_LocalEulerAnglesHint: {x: 0, y: 0, z: 0}
--- !u!4 &4957292234576936
Transform:
  m_ObjectHideFlags: 1
  m_PrefabParentObject: {fileID: 0}
  m_PrefabInternal: {fileID: 100100000}
  m_GameObject: {fileID: 1265896195567022}
  m_LocalRotation: {x: 0.0000011500878, y: 0.000003395814, z: -0.7746044, w: 0.6324461}
  m_LocalPosition: {x: 0.08749115, y: 0.13088845, z: 0.0000005117364}
  m_LocalScale: {x: 0.9999999, y: 0.9999999, z: 1}
  m_Children:
  - {fileID: 4654953414396988}
  m_Father: {fileID: 4424047983146230}
  m_RootOrder: 2
  m_LocalEulerAnglesHint: {x: 0, y: 0, z: 0}
--- !u!4 &4961981866179800
Transform:
  m_ObjectHideFlags: 1
  m_PrefabParentObject: {fileID: 0}
  m_PrefabInternal: {fileID: 100100000}
  m_GameObject: {fileID: 1938306453350598}
  m_LocalRotation: {x: -0.49999967, y: 0.50000036, z: 0.49999967, w: 0.50000036}
  m_LocalPosition: {x: -0, y: 0, z: 0}
  m_LocalScale: {x: 1, y: 1, z: 1}
  m_Children:
  - {fileID: 4234223790612768}
  m_Father: {fileID: 4101530014079964}
  m_RootOrder: 0
  m_LocalEulerAnglesHint: {x: 0, y: 0, z: 0}
--- !u!4 &4980367248527866
Transform:
  m_ObjectHideFlags: 1
  m_PrefabParentObject: {fileID: 0}
  m_PrefabInternal: {fileID: 100100000}
  m_GameObject: {fileID: 1503054533747536}
  m_LocalRotation: {x: -0.7071068, y: -0, z: -0, w: 0.7071068}
  m_LocalPosition: {x: 0, y: 0, z: 0}
  m_LocalScale: {x: 1, y: 1, z: 1}
  m_Children: []
  m_Father: {fileID: 4334027704166700}
  m_RootOrder: 0
  m_LocalEulerAnglesHint: {x: 0, y: 0, z: 0}
--- !u!54 &54173006123845132
Rigidbody:
  m_ObjectHideFlags: 1
  m_PrefabParentObject: {fileID: 0}
  m_PrefabInternal: {fileID: 100100000}
  m_GameObject: {fileID: 1434496334728790}
  serializedVersion: 2
  m_Mass: 40
  m_Drag: 0
  m_AngularDrag: 0.05
  m_UseGravity: 1
  m_IsKinematic: 0
  m_Interpolate: 0
  m_Constraints: 116
  m_CollisionDetection: 0
--- !u!65 &65575443954639910
BoxCollider:
  m_ObjectHideFlags: 1
  m_PrefabParentObject: {fileID: 0}
  m_PrefabInternal: {fileID: 100100000}
  m_GameObject: {fileID: 1674481458891254}
  m_Material: {fileID: 0}
  m_IsTrigger: 1
  m_Enabled: 0
  serializedVersion: 2
  m_Size: {x: 0.29, y: 0.8366139, z: 0.44}
  m_Center: {x: -0.0000008009374, y: 0.41830695, z: 0.00000035762787}
--- !u!82 &82582516283481270
AudioSource:
  m_ObjectHideFlags: 1
  m_PrefabParentObject: {fileID: 0}
  m_PrefabInternal: {fileID: 100100000}
  m_GameObject: {fileID: 1434496334728790}
  m_Enabled: 1
  serializedVersion: 4
  OutputAudioMixerGroup: {fileID: 0}
  m_audioClip: {fileID: 0}
  m_PlayOnAwake: 1
  m_Volume: 1
  m_Pitch: 1
  Loop: 0
  Mute: 0
  Spatialize: 0
  SpatializePostEffects: 0
  Priority: 128
  DopplerLevel: 1
  MinDistance: 10
  MaxDistance: 10.1
  Pan2D: 0
  rolloffMode: 0
  BypassEffects: 0
  BypassListenerEffects: 0
  BypassReverbZones: 0
  rolloffCustomCurve:
    serializedVersion: 2
    m_Curve:
    - serializedVersion: 2
      time: 0
      value: 1
      inSlope: 0
      outSlope: 0
      tangentMode: 0
    - serializedVersion: 2
      time: 1
      value: 0
      inSlope: 0
      outSlope: 0
      tangentMode: 0
    m_PreInfinity: 2
    m_PostInfinity: 2
    m_RotationOrder: 4
  panLevelCustomCurve:
    serializedVersion: 2
    m_Curve:
    - serializedVersion: 2
      time: 0
      value: 1
      inSlope: 0
      outSlope: 0
      tangentMode: 0
    m_PreInfinity: 2
    m_PostInfinity: 2
    m_RotationOrder: 0
  spreadCustomCurve:
    serializedVersion: 2
    m_Curve:
    - serializedVersion: 2
      time: 0
      value: 0
      inSlope: 0
      outSlope: 0
      tangentMode: 0
    m_PreInfinity: 2
    m_PostInfinity: 2
    m_RotationOrder: 0
  reverbZoneMixCustomCurve:
    serializedVersion: 2
    m_Curve:
    - serializedVersion: 2
      time: 0
      value: 1
      inSlope: 0
      outSlope: 0
      tangentMode: 0
    m_PreInfinity: 2
    m_PostInfinity: 2
    m_RotationOrder: 0
--- !u!95 &95153758526926730
Animator:
  serializedVersion: 3
  m_ObjectHideFlags: 1
  m_PrefabParentObject: {fileID: 0}
  m_PrefabInternal: {fileID: 100100000}
  m_GameObject: {fileID: 1434496334728790}
  m_Enabled: 1
  m_Avatar: {fileID: 9000000, guid: b4dc3c74541def84191303ea727d9a51, type: 3}
  m_Controller: {fileID: 9100000, guid: 9a9ca9be051874949827310e9443be52, type: 2}
  m_CullingMode: 1
  m_UpdateMode: 1
  m_ApplyRootMotion: 1
  m_LinearVelocityBlending: 0
  m_WarningMessage: 
  m_HasTransformHierarchy: 1
  m_AllowConstantClipSamplingOptimization: 1
--- !u!114 &114019089736170514
MonoBehaviour:
  m_ObjectHideFlags: 1
  m_PrefabParentObject: {fileID: 0}
  m_PrefabInternal: {fileID: 100100000}
  m_GameObject: {fileID: 1757467586876172}
  m_Enabled: 1
  m_EditorHideFlags: 0
  m_Script: {fileID: 11500000, guid: 9b4de088e089c164bb239be84964ea4c, type: 3}
  m_Name: 
  m_EditorClassIdentifier: 
  UseColliders: 1
  gizmoType: 0
  alpha: 0.22
  debugSize: 0.03
  DebugColor: {r: 0, g: 0.91724133, b: 1, a: 1}
  DrawAxis: 0
  AxisSize: 0.3
--- !u!114 &114027825624915586
MonoBehaviour:
  m_ObjectHideFlags: 1
  m_PrefabParentObject: {fileID: 0}
  m_PrefabInternal: {fileID: 100100000}
  m_GameObject: {fileID: 1193715922181044}
  m_Enabled: 1
  m_EditorHideFlags: 0
  m_Script: {fileID: 11500000, guid: 0d28118109a4a004ea7f53889baf6f50, type: 3}
  m_Name: 
  m_EditorClassIdentifier: 
  WaitNextStep: 0.5
  StepAudio: {fileID: 0}
--- !u!114 &114031055326986850
MonoBehaviour:
  m_ObjectHideFlags: 1
  m_PrefabParentObject: {fileID: 0}
  m_PrefabInternal: {fileID: 100100000}
  m_GameObject: {fileID: 1221866835988590}
  m_Enabled: 1
  m_EditorHideFlags: 0
  m_Script: {fileID: 11500000, guid: 9b4de088e089c164bb239be84964ea4c, type: 3}
  m_Name: 
  m_EditorClassIdentifier: 
  UseColliders: 1
  gizmoType: 0
  alpha: 0.22
  debugSize: 0.03
  DebugColor: {r: 0, g: 0.91724133, b: 1, a: 1}
  DrawAxis: 0
  AxisSize: 0.3
--- !u!114 &114041163251044646
MonoBehaviour:
  m_ObjectHideFlags: 1
  m_PrefabParentObject: {fileID: 0}
  m_PrefabInternal: {fileID: 100100000}
  m_GameObject: {fileID: 1434496334728790}
  m_Enabled: 1
  m_EditorHideFlags: 0
  m_Script: {fileID: 11500000, guid: 12fd74a46159fd04b9a3d3d643cdb50f, type: 3}
  m_Name: 
  m_EditorClassIdentifier: 
  inputs:
  - active: 1
    name: Jump
    type: 0
    input: Jump
    key: 32
    GetPressed: 0
  - active: 1
    name: Shift
    type: 0
    input: Fire3
    key: 304
    GetPressed: 0
  - active: 1
    name: Attack1
    type: 0
    input: Fire1
    key: 323
    GetPressed: 0
  - active: 0
    name: Speed1
    type: 1
    input: Speed1
    key: 49
    GetPressed: 1
  - active: 0
    name: Speed2
    type: 1
    input: Speed2
    key: 50
    GetPressed: 1
  - active: 0
    name: Speed3
    type: 1
    input: Speed3
    key: 51
    GetPressed: 1
  - active: 1
    name: SpeedDown
    type: 1
    input: SpeedDown
    key: 49
    GetPressed: 1
  - active: 1
    name: SpeedUp
    type: 1
    input: SpeedUp
    key: 50
    GetPressed: 1
  - active: 1
    name: Action
    type: 1
    input: Action
    key: 101
    GetPressed: 1
  - active: 1
    name: Stun
    type: 1
    input: Action
    key: 104
    GetPressed: 0
  ActiveHorizontal: 1
  ActiveVertical: 1
  Horizontal: Horizontal
  Vertical: Vertical
  AxisRaw: 1
  cameraBaseInput: 0
  alwaysForward: 0
--- !u!114 &114079420064554534
MonoBehaviour:
  m_ObjectHideFlags: 1
  m_PrefabParentObject: {fileID: 0}
  m_PrefabInternal: {fileID: 100100000}
  m_GameObject: {fileID: 1434496334728790}
  m_Enabled: 1
  m_EditorHideFlags: 0
  m_Script: {fileID: 11500000, guid: 181eb898d7c8aa441b8df05cec988f7d, type: 3}
  m_Name: 
  m_EditorClassIdentifier: 
  Tracks: {fileID: 198000013136168986, guid: b89bf404b651df940b0f4eb9de79a61d, type: 2}
  Dust: {fileID: 198000010737321038, guid: f0e05868b149bf947969b4825ba90440, type: 2}
  StepsVolume: 0.2
  DustParticles: 15
  Scale: {x: 1, y: 1, z: 1}
  clips:
  - {fileID: 8300000, guid: 73addaaa36bc5b4478d7cbee61bd3ad0, type: 3}
  - {fileID: 8300000, guid: 7f5d9f9991c533547a0f2e8dca867933, type: 3}
  - {fileID: 8300000, guid: 50ef9e51d993734499f3ba55391226ec, type: 3}
  - {fileID: 8300000, guid: 272c1b463f5155543881cb12a3fad53b, type: 3}
  - {fileID: 8300000, guid: bbd4941d8f179af4eaa8b0e6f06352a8, type: 3}
  trackOffset: 0.0085
--- !u!114 &114130754704850334
MonoBehaviour:
  m_ObjectHideFlags: 1
  m_PrefabParentObject: {fileID: 0}
  m_PrefabInternal: {fileID: 100100000}
  m_GameObject: {fileID: 1221866835988590}
  m_Enabled: 1
  m_EditorHideFlags: 0
  m_Script: {fileID: 11500000, guid: 0d28118109a4a004ea7f53889baf6f50, type: 3}
  m_Name: 
  m_EditorClassIdentifier: 
  WaitNextStep: 0.5
  StepAudio: {fileID: 0}
--- !u!114 &114203772975164668
MonoBehaviour:
  m_ObjectHideFlags: 1
  m_PrefabParentObject: {fileID: 0}
  m_PrefabInternal: {fileID: 100100000}
  m_GameObject: {fileID: 1434496334728790}
  m_Enabled: 1
  m_EditorHideFlags: 0
  m_Script: {fileID: 11500000, guid: 0cfe5b9b31f86d7409eacee80dce9b30, type: 3}
  m_Name: 
  m_EditorClassIdentifier: 
  Shapes:
  - NameID: Fox
    mesh: {fileID: 137414171096790228}
    blendShapes:
    - 0
    - 100
    - 50
    - 0
    - 25
    - 25
    - 100
    - 0
    - 100
    - 0
    - 0
    ActiveShape: 
--- !u!114 &114210783200298748
MonoBehaviour:
  m_ObjectHideFlags: 1
  m_PrefabParentObject: {fileID: 0}
  m_PrefabInternal: {fileID: 100100000}
  m_GameObject: {fileID: 1974596261285554}
  m_Enabled: 1
  m_EditorHideFlags: 0
  m_Script: {fileID: 11500000, guid: a9deb6e7717bd59489eda60ab51b81bb, type: 3}
  m_Name: 
  m_EditorClassIdentifier: 
  pivot: {fileID: 0}
  multiplier: 0.7
  debug: 1
  debugSize: 0.03
  DebugColor: {r: 1, g: 1, b: 0, a: 1}
  drawRay: 1
--- !u!114 &114343076478648520
MonoBehaviour:
  m_ObjectHideFlags: 1
  m_PrefabParentObject: {fileID: 0}
  m_PrefabInternal: {fileID: 100100000}
  m_GameObject: {fileID: 1602103107345520}
  m_Enabled: 1
  m_EditorHideFlags: 0
  m_Script: {fileID: 11500000, guid: a9deb6e7717bd59489eda60ab51b81bb, type: 3}
  m_Name: 
  m_EditorClassIdentifier: 
  pivot: {fileID: 4046105807480356}
  multiplier: 0.87
  debug: 1
  debugSize: 0.03
  DebugColor: {r: 1, g: 1, b: 0, a: 1}
  drawRay: 1
--- !u!114 &114418231266215106
MonoBehaviour:
  m_ObjectHideFlags: 1
  m_PrefabParentObject: {fileID: 0}
  m_PrefabInternal: {fileID: 100100000}
  m_GameObject: {fileID: 1261372224718620}
  m_Enabled: 1
  m_EditorHideFlags: 0
  m_Script: {fileID: 11500000, guid: a9deb6e7717bd59489eda60ab51b81bb, type: 3}
  m_Name: 
  m_EditorClassIdentifier: 
  pivot: {fileID: 0}
  multiplier: 0.6
  debug: 1
  debugSize: 0.03
  DebugColor: {r: 0, g: 0.66896534, b: 1, a: 1}
  drawRay: 1
--- !u!114 &114645012941508362
MonoBehaviour:
  m_ObjectHideFlags: 1
  m_PrefabParentObject: {fileID: 0}
  m_PrefabInternal: {fileID: 100100000}
  m_GameObject: {fileID: 1718340185306556}
  m_Enabled: 1
  m_EditorHideFlags: 0
  m_Script: {fileID: 11500000, guid: 9b4de088e089c164bb239be84964ea4c, type: 3}
  m_Name: 
  m_EditorClassIdentifier: 
  UseColliders: 1
  gizmoType: 0
  alpha: 0.22
  debugSize: 0.03
  DebugColor: {r: 0, g: 0.91724133, b: 1, a: 1}
  DrawAxis: 0
  AxisSize: 0.3
--- !u!114 &114651057899512976
MonoBehaviour:
  m_ObjectHideFlags: 1
  m_PrefabParentObject: {fileID: 0}
  m_PrefabInternal: {fileID: 100100000}
  m_GameObject: {fileID: 1434496334728790}
  m_Enabled: 1
  m_EditorHideFlags: 0
  m_Script: {fileID: 11500000, guid: c51aadafe0cedb841ac535263babb1a9, type: 3}
  m_Name: 
  m_EditorClassIdentifier: 
  Meshes:
  - Name: Magic
    meshes:
    - {fileID: 4639949750046082}
    - {fileID: 0}
    Current: 1
    OnActiveMesh:
      m_PersistentCalls:
        m_Calls: []
      m_TypeName: MalbersAnimations.Events.TransformEvent, Assembly-CSharp, Version=0.0.0.0,
        Culture=neutral, PublicKeyToken=null
  showMeshesList: 1
--- !u!114 &114660781311089964
MonoBehaviour:
  m_ObjectHideFlags: 1
  m_PrefabParentObject: {fileID: 0}
  m_PrefabInternal: {fileID: 100100000}
  m_GameObject: {fileID: 1434496334728790}
  m_Enabled: 1
  m_EditorHideFlags: 0
  m_Script: {fileID: 11500000, guid: 334fda2dd5b998e4abb8119d1343346f, type: 3}
  m_Name: 
  m_EditorClassIdentifier: 
  active: 1
  UseCamera: 0
  Target: {fileID: 0}
  LimitAngle: 60
  Smoothness: 5
  UpVector: {x: 0, y: 1, z: 0}
  Bones:
  - bone: {fileID: 4424047983146230}
    offset: {x: 0, y: -90, z: -90}
    weight: 1
  debug: 1
--- !u!114 &114664420048145830
MonoBehaviour:
  m_ObjectHideFlags: 1
  m_PrefabParentObject: {fileID: 0}
  m_PrefabInternal: {fileID: 100100000}
  m_GameObject: {fileID: 1701131551050930}
  m_Enabled: 1
  m_EditorHideFlags: 0
  m_Script: {fileID: 11500000, guid: 121ae9b4bb1a695499309013a1c931ff, type: 3}
  m_Name: 
  m_EditorClassIdentifier: 
  master: {fileID: 137414171096790228}
  slave: {fileID: 137468345409121994}
--- !u!114 &114718596048581160
MonoBehaviour:
  m_ObjectHideFlags: 1
  m_PrefabParentObject: {fileID: 0}
  m_PrefabInternal: {fileID: 100100000}
  m_GameObject: {fileID: 1718340185306556}
  m_Enabled: 1
  m_EditorHideFlags: 0
  m_Script: {fileID: 11500000, guid: 0d28118109a4a004ea7f53889baf6f50, type: 3}
  m_Name: 
  m_EditorClassIdentifier: 
  WaitNextStep: 0.5
  StepAudio: {fileID: 0}
--- !u!114 &114774216774631438
MonoBehaviour:
  m_ObjectHideFlags: 1
  m_PrefabParentObject: {fileID: 0}
  m_PrefabInternal: {fileID: 100100000}
  m_GameObject: {fileID: 1434496334728790}
  m_Enabled: 1
  m_EditorHideFlags: 0
  m_Script: {fileID: 11500000, guid: 1f7b187428519474db57076680c22084, type: 3}
  m_Name: 
  m_EditorClassIdentifier: 
  materialList:
  - Name: Skin
    mesh: {fileID: 137414171096790228}
    materials:
    - {fileID: 2100000, guid: f7d139f5e6a3c9c44a5835eca8271951, type: 2}
    - {fileID: 2100000, guid: 1e28f2ea86686bf46bd1a28256f0888b, type: 2}
    - {fileID: 2100000, guid: fcc8068c8b002c442a7b5f8ffe02d0a1, type: 2}
    - {fileID: 2100000, guid: af3a7daa4e44b814d8193ab256a1f9d7, type: 2}
    - {fileID: 2100000, guid: 8d90183e2b86ad442a615272550d044a, type: 2}
    current: 4
    HasLODs: 0
    LODs: []
    indexM: 0
  - Name: Magic
    mesh: {fileID: 137468345409121994}
    materials:
    - {fileID: 2100000, guid: c4976ecf03899a04a8d5faa68fcc1a02, type: 2}
    - {fileID: 2100000, guid: ebf64ba4602dfa0439b76dac306e1522, type: 2}
    - {fileID: 2100000, guid: 5578bdf27ee7bf743bd72e8e4172913c, type: 2}
    - {fileID: 2100000, guid: 9e69f0b8560e90741aff6f38811f51d1, type: 2}
    - {fileID: 2100000, guid: e06654e42f6991548a76f7ed883c3515, type: 2}
    - {fileID: 2100000, guid: 5e2948538d3401c4e9b045835fad426a, type: 2}
    current: 5
    HasLODs: 0
    LODs: []
    indexM: 0
  showMeshesList: 1
--- !u!114 &114816300165519690
MonoBehaviour:
  m_ObjectHideFlags: 1
  m_PrefabParentObject: {fileID: 0}
  m_PrefabInternal: {fileID: 100100000}
  m_GameObject: {fileID: 1674980842349294}
  m_Enabled: 1
  m_EditorHideFlags: 0
  m_Script: {fileID: 11500000, guid: 3ba6a0c4ae41dba499b324d6ba760f90, type: 3}
  m_Name: 
  m_EditorClassIdentifier: 
  index: 1
  damageMultiplier: 1
  PushForce: 0
  debug: 1
  DebugColor: {r: 1, g: 0.25, b: 0, a: 0.15}
--- !u!114 &114830833388272276
MonoBehaviour:
  m_ObjectHideFlags: 1
  m_PrefabParentObject: {fileID: 0}
  m_PrefabInternal: {fileID: 100100000}
  m_GameObject: {fileID: 1193715922181044}
  m_Enabled: 1
  m_EditorHideFlags: 0
  m_Script: {fileID: 11500000, guid: 9b4de088e089c164bb239be84964ea4c, type: 3}
  m_Name: 
  m_EditorClassIdentifier: 
  UseColliders: 1
  gizmoType: 0
  alpha: 0.22
  debugSize: 0.03
  DebugColor: {r: 0, g: 0.91724133, b: 1, a: 1}
  DrawAxis: 0
  AxisSize: 0.3
--- !u!114 &114865221316073718
MonoBehaviour:
  m_ObjectHideFlags: 1
  m_PrefabParentObject: {fileID: 0}
  m_PrefabInternal: {fileID: 100100000}
  m_GameObject: {fileID: 1757467586876172}
  m_Enabled: 1
  m_EditorHideFlags: 0
  m_Script: {fileID: 11500000, guid: 0d28118109a4a004ea7f53889baf6f50, type: 3}
  m_Name: 
  m_EditorClassIdentifier: 
  WaitNextStep: 0.5
  StepAudio: {fileID: 0}
--- !u!114 &114872010490114814
MonoBehaviour:
  m_ObjectHideFlags: 1
  m_PrefabParentObject: {fileID: 0}
  m_PrefabInternal: {fileID: 100100000}
  m_GameObject: {fileID: 1434496334728790}
  m_Enabled: 1
  m_EditorHideFlags: 0
  m_Script: {fileID: 11500000, guid: 2c3a10fa46510904caf0d339cac28562, type: 3}
  m_Name: 
  m_EditorClassIdentifier: 
  animalTypeID: 0
  JumpHeightMultiplier: 0
  JumpForwardMultiplier: 0
  GroundLayer:
    serializedVersion: 2
    m_Bits: 1
  StartSpeed: 3
  height: 0.51
  walkSpeed:
    position: 0
    animator: 1
    lerpPosition: 8
    lerpAnimator: 4
    rotation: 0
    lerpRotation: 6
  trotSpeed:
    position: 0
    animator: 1
    lerpPosition: 4
    lerpAnimator: 4
    rotation: 0
    lerpRotation: 6
  runSpeed:
    position: 0
    animator: 1
    lerpPosition: 2
    lerpAnimator: 4
    rotation: 0
    lerpRotation: 6
  airRotation: 100
  forwardJumpControl: 0
  smoothJumpForward: 2
  movementS1: 1
  movementS2: 2
  movementS3: 3
  maxAngleSlope: 45
  SlowSlopes: 1
  GotoSleep: 20
  SnapToGround: 20
  AlingToGround: 10
  FallRayDistance: 0.15
  FallRayMultiplier: 0.7
  TurnMultiplier: 40
  YAxisPositiveMultiplier: 1
  YAxisNegativeMultiplier: 1
  waterLine: -0.13
  swimSpeed:
    position: 0
    animator: 1
    lerpPosition: 4
    lerpAnimator: 4
    rotation: 0
    lerpRotation: 6
  canSwim: 1
  CanGoUnderWater: 0
  bank: 0
  underWaterSpeed:
    position: 0
    animator: 1
    lerpPosition: 4
    lerpAnimator: 4
    rotation: 0
    lerpRotation: 4
  flySpeed:
    position: 0
    animator: 1
    lerpPosition: 4
    lerpAnimator: 4
    rotation: 0
    lerpRotation: 4
  StartFlying: 0
  canFly: 0
  land: 1
  LockUp: 0
  life: 100
  defense: 0
  damageDelay: 0.2
  damageInterrupt: 0.2
  TotalAttacks: 4
  activeAttack: -1
  attackStrength: 0
  attackDelay: 0.5
  inmune: 0
  animatorSpeed: 1
  upDownSmoothness: 2
  debug: 1
  OnJump:
    m_PersistentCalls:
      m_Calls: []
    m_TypeName: UnityEngine.Events.UnityEvent, UnityEngine.CoreModule, Version=0.0.0.0,
      Culture=neutral, PublicKeyToken=null
  OnAttack:
    m_PersistentCalls:
      m_Calls: []
    m_TypeName: UnityEngine.Events.UnityEvent, UnityEngine.CoreModule, Version=0.0.0.0,
      Culture=neutral, PublicKeyToken=null
  OnGetDamaged:
    m_PersistentCalls:
      m_Calls: []
    m_TypeName: MalbersAnimations.Events.FloatEvent, Assembly-CSharp, Version=0.0.0.0,
      Culture=neutral, PublicKeyToken=null
  OnDeathE:
    m_PersistentCalls:
      m_Calls: []
    m_TypeName: UnityEngine.Events.UnityEvent, UnityEngine.CoreModule, Version=0.0.0.0,
      Culture=neutral, PublicKeyToken=null
  OnAction:
    m_PersistentCalls:
      m_Calls: []
    m_TypeName: UnityEngine.Events.UnityEvent, UnityEngine.CoreModule, Version=0.0.0.0,
      Culture=neutral, PublicKeyToken=null
  OnSwim:
    m_PersistentCalls:
      m_Calls: []
    m_TypeName: UnityEngine.Events.UnityEvent, UnityEngine.CoreModule, Version=0.0.0.0,
      Culture=neutral, PublicKeyToken=null
  OnFly:
    m_PersistentCalls:
      m_Calls: []
    m_TypeName: MalbersAnimations.Events.BoolEvent, Assembly-CSharp, Version=0.0.0.0,
      Culture=neutral, PublicKeyToken=null
  OnUnderWater:
    m_PersistentCalls:
      m_Calls: []
    m_TypeName: UnityEngine.Events.UnityEvent, UnityEngine.CoreModule, Version=0.0.0.0,
      Culture=neutral, PublicKeyToken=null
  OnSyncAnimator:
    m_PersistentCalls:
      m_Calls: []
    m_TypeName: UnityEngine.Events.UnityEvent, UnityEngine.CoreModule, Version=0.0.0.0,
      Culture=neutral, PublicKeyToken=null
  EditorGeneral: 1
  EditorGround: 1
  EditorWater: 1
  EditorAir: 1
  EditorAdvanced: 1
  EditorAirControl: 1
  EditorAttributes: 1
  EditorEvents: 1
--- !u!114 &114899156184174246
MonoBehaviour:
  m_ObjectHideFlags: 1
  m_PrefabParentObject: {fileID: 0}
  m_PrefabInternal: {fileID: 100100000}
  m_GameObject: {fileID: 1674481458891254}
  m_Enabled: 1
  m_EditorHideFlags: 0
  m_Script: {fileID: 11500000, guid: 3ba6a0c4ae41dba499b324d6ba760f90, type: 3}
  m_Name: 
  m_EditorClassIdentifier: 
  index: 2
  damageMultiplier: 1
  PushForce: 0
  debug: 1
  DebugColor: {r: 1, g: 0.25, b: 0, a: 0.15}
--- !u!135 &135046173109644476
SphereCollider:
  m_ObjectHideFlags: 1
  m_PrefabParentObject: {fileID: 0}
  m_PrefabInternal: {fileID: 100100000}
  m_GameObject: {fileID: 1757989112646226}
  m_Material: {fileID: 13400000, guid: 54174b87a6301064ea8788686f85bda8, type: 2}
  m_IsTrigger: 0
  m_Enabled: 1
  serializedVersion: 2
  m_Radius: 0.095
  m_Center: {x: 0, y: 0.06, z: 0}
--- !u!135 &135282332511020996
SphereCollider:
  m_ObjectHideFlags: 1
  m_PrefabParentObject: {fileID: 0}
  m_PrefabInternal: {fileID: 100100000}
  m_GameObject: {fileID: 1674980842349294}
  m_Material: {fileID: 0}
  m_IsTrigger: 1
  m_Enabled: 0
  serializedVersion: 2
  m_Radius: 0.19
  m_Center: {x: 0, y: 0, z: 0}
--- !u!135 &135389434575419992
SphereCollider:
  m_ObjectHideFlags: 1
  m_PrefabParentObject: {fileID: 0}
  m_PrefabInternal: {fileID: 100100000}
  m_GameObject: {fileID: 1718340185306556}
  m_Material: {fileID: 0}
  m_IsTrigger: 1
  m_Enabled: 1
  serializedVersion: 2
  m_Radius: 0.04
  m_Center: {x: 0, y: 0, z: 0}
--- !u!135 &135538268274813930
SphereCollider:
  m_ObjectHideFlags: 1
  m_PrefabParentObject: {fileID: 0}
  m_PrefabInternal: {fileID: 100100000}
  m_GameObject: {fileID: 1221866835988590}
  m_Material: {fileID: 0}
  m_IsTrigger: 1
  m_Enabled: 1
  serializedVersion: 2
  m_Radius: 0.04
  m_Center: {x: 0, y: 0, z: 0}
--- !u!135 &135614305875287232
SphereCollider:
  m_ObjectHideFlags: 1
  m_PrefabParentObject: {fileID: 0}
  m_PrefabInternal: {fileID: 100100000}
  m_GameObject: {fileID: 1193715922181044}
  m_Material: {fileID: 0}
  m_IsTrigger: 1
  m_Enabled: 1
  serializedVersion: 2
  m_Radius: 0.04
  m_Center: {x: 0, y: 0, z: 0}
--- !u!135 &135899048641120254
SphereCollider:
  m_ObjectHideFlags: 1
  m_PrefabParentObject: {fileID: 0}
  m_PrefabInternal: {fileID: 100100000}
  m_GameObject: {fileID: 1757467586876172}
  m_Material: {fileID: 0}
  m_IsTrigger: 1
  m_Enabled: 1
  serializedVersion: 2
  m_Radius: 0.04
  m_Center: {x: 0, y: 0, z: 0}
--- !u!136 &136012683989632710
CapsuleCollider:
  m_ObjectHideFlags: 1
  m_PrefabParentObject: {fileID: 0}
  m_PrefabInternal: {fileID: 100100000}
  m_GameObject: {fileID: 1097109082778744}
  m_Material: {fileID: 13400000, guid: 54174b87a6301064ea8788686f85bda8, type: 2}
  m_IsTrigger: 0
  m_Enabled: 1
  m_Radius: 0.11309509
  m_Height: 0.45255604
  m_Direction: 0
  m_Center: {x: 0, y: 0.04, z: 0}
--- !u!136 &136306916368414020
CapsuleCollider:
  m_ObjectHideFlags: 1
  m_PrefabParentObject: {fileID: 0}
  m_PrefabInternal: {fileID: 100100000}
  m_GameObject: {fileID: 1997098306254028}
  m_Material: {fileID: 13400000, guid: 54174b87a6301064ea8788686f85bda8, type: 2}
  m_IsTrigger: 0
  m_Enabled: 1
  m_Radius: 0.121
  m_Height: 0.45255604
  m_Direction: 0
  m_Center: {x: 0, y: 0.05, z: 0}
--- !u!136 &136616303975486208
CapsuleCollider:
  m_ObjectHideFlags: 1
  m_PrefabParentObject: {fileID: 0}
  m_PrefabInternal: {fileID: 100100000}
  m_GameObject: {fileID: 1757989112646226}
  m_Material: {fileID: 13400000, guid: 870559f761eb90243ba09333475b5046, type: 2}
  m_IsTrigger: 0
  m_Enabled: 1
  m_Radius: 0.05
  m_Height: 0.24914305
  m_Direction: 1
  m_Center: {x: 0.06, y: 0.12, z: 0}
--- !u!136 &136627066771245480
CapsuleCollider:
  m_ObjectHideFlags: 1
  m_PrefabParentObject: {fileID: 0}
  m_PrefabInternal: {fileID: 100100000}
  m_GameObject: {fileID: 1690189517689822}
  m_Material: {fileID: 13400000, guid: 54174b87a6301064ea8788686f85bda8, type: 2}
  m_IsTrigger: 0
  m_Enabled: 1
  m_Radius: 0.09
  m_Height: 0.31
  m_Direction: 0
  m_Center: {x: -0.08, y: 0, z: 0}
--- !u!136 &136996638658846366
CapsuleCollider:
  m_ObjectHideFlags: 1
  m_PrefabParentObject: {fileID: 0}
  m_PrefabInternal: {fileID: 100100000}
  m_GameObject: {fileID: 1020551640068736}
  m_Material: {fileID: 13400000, guid: 54174b87a6301064ea8788686f85bda8, type: 2}
  m_IsTrigger: 0
  m_Enabled: 1
  m_Radius: 0.121
  m_Height: 0.45255604
  m_Direction: 0
  m_Center: {x: 0.03, y: 0.05, z: 0}
--- !u!137 &137414171096790228
SkinnedMeshRenderer:
  m_ObjectHideFlags: 1
  m_PrefabParentObject: {fileID: 0}
  m_PrefabInternal: {fileID: 100100000}
  m_GameObject: {fileID: 1503054533747536}
  m_Enabled: 1
  m_CastShadows: 1
  m_ReceiveShadows: 1
  m_DynamicOccludee: 1
  m_MotionVectors: 1
  m_LightProbeUsage: 1
  m_ReflectionProbeUsage: 1
  m_Materials:
  - {fileID: 2100000, guid: 8d90183e2b86ad442a615272550d044a, type: 2}
  m_StaticBatchInfo:
    firstSubMesh: 0
    subMeshCount: 0
  m_StaticBatchRoot: {fileID: 0}
  m_ProbeAnchor: {fileID: 0}
  m_LightProbeVolumeOverride: {fileID: 0}
  m_ScaleInLightmap: 1
  m_PreserveUVs: 0
  m_IgnoreNormalsForChartDetection: 0
  m_ImportantGI: 0
  m_StitchLightmapSeams: 0
  m_SelectedEditorRenderState: 3
  m_MinimumChartSize: 4
  m_AutoUVMaxDistance: 0.5
  m_AutoUVMaxAngle: 89
  m_LightmapParameters: {fileID: 0}
  m_SortingLayerID: 0
  m_SortingLayer: 0
  m_SortingOrder: 0
  serializedVersion: 2
  m_Quality: 0
  m_UpdateWhenOffscreen: 0
  m_SkinnedMotionVectors: 1
  m_Mesh: {fileID: 4300000, guid: b4dc3c74541def84191303ea727d9a51, type: 3}
  m_Bones:
  - {fileID: 4424047983146230}
  - {fileID: 4739536109678572}
  - {fileID: 4801254456257544}
  - {fileID: 4594667191894656}
  - {fileID: 4349148392415600}
  - {fileID: 4656842157299460}
  - {fileID: 4815359111538158}
  - {fileID: 4228799868318818}
  - {fileID: 4961981866179800}
  - {fileID: 4234223790612768}
  - {fileID: 4046105807480356}
  - {fileID: 4924711816336566}
  - {fileID: 4143753530922110}
  - {fileID: 4288370084800440}
  - {fileID: 4598770876403032}
  - {fileID: 4731270293174282}
  - {fileID: 4524533804289268}
  - {fileID: 4315092735530800}
  - {fileID: 4900362066367702}
  - {fileID: 4957292234576936}
  - {fileID: 4276821215342890}
  - {fileID: 4721749022490708}
  - {fileID: 4336801321545550}
  - {fileID: 4788434790453064}
  - {fileID: 4654953414396988}
  - {fileID: 4832353951404106}
  - {fileID: 4743286357175544}
  - {fileID: 4013830951915700}
  - {fileID: 4607709726556906}
  - {fileID: 4684353707666198}
  - {fileID: 4790742139201348}
  - {fileID: 4435392296721936}
  - {fileID: 4058854140134924}
  - {fileID: 4714962270503514}
  m_BlendShapeWeights:
  - 0
  - 100
  - 50
  - 0
  - 25
  - 25
  - 100
  - 0
  - 100
  - 0
  - 0
  m_RootBone: {fileID: 4961981866179800}
  m_AABB:
    m_Center: {x: 0.13028118, y: 0.14924312, z: -0.0066986457}
    m_Extent: {x: 0.39451364, y: 0.8567476, z: 0.18668666}
  m_DirtyAABB: 0
--- !u!137 &137468345409121994
SkinnedMeshRenderer:
  m_ObjectHideFlags: 1
  m_PrefabParentObject: {fileID: 0}
  m_PrefabInternal: {fileID: 100100000}
  m_GameObject: {fileID: 1701131551050930}
  m_Enabled: 1
  m_CastShadows: 1
  m_ReceiveShadows: 1
  m_DynamicOccludee: 1
  m_MotionVectors: 1
  m_LightProbeUsage: 1
  m_ReflectionProbeUsage: 1
  m_Materials:
  - {fileID: 2100000, guid: 5e2948538d3401c4e9b045835fad426a, type: 2}
  m_StaticBatchInfo:
    firstSubMesh: 0
    subMeshCount: 0
  m_StaticBatchRoot: {fileID: 0}
  m_ProbeAnchor: {fileID: 0}
  m_LightProbeVolumeOverride: {fileID: 0}
  m_ScaleInLightmap: 1
  m_PreserveUVs: 0
  m_IgnoreNormalsForChartDetection: 0
  m_ImportantGI: 0
  m_StitchLightmapSeams: 0
  m_SelectedEditorRenderState: 3
  m_MinimumChartSize: 4
  m_AutoUVMaxDistance: 0.5
  m_AutoUVMaxAngle: 89
  m_LightmapParameters: {fileID: 0}
  m_SortingLayerID: 0
  m_SortingLayer: 0
  m_SortingOrder: 0
  serializedVersion: 2
  m_Quality: 0
  m_UpdateWhenOffscreen: 0
  m_SkinnedMotionVectors: 1
  m_Mesh: {fileID: 4300002, guid: b4dc3c74541def84191303ea727d9a51, type: 3}
  m_Bones:
  - {fileID: 4424047983146230}
  - {fileID: 4739536109678572}
  - {fileID: 4801254456257544}
  - {fileID: 4046105807480356}
  - {fileID: 4957292234576936}
  - {fileID: 4315092735530800}
  - {fileID: 4594667191894656}
  - {fileID: 4349148392415600}
  - {fileID: 4656842157299460}
  - {fileID: 4815359111538158}
  - {fileID: 4276821215342890}
  - {fileID: 4228799868318818}
  - {fileID: 4961981866179800}
  - {fileID: 4234223790612768}
  - {fileID: 4143753530922110}
  - {fileID: 4900362066367702}
  - {fileID: 4336801321545550}
  - {fileID: 4721749022490708}
  - {fileID: 4832353951404106}
  - {fileID: 4924711816336566}
  - {fileID: 4288370084800440}
  - {fileID: 4598770876403032}
  - {fileID: 4731270293174282}
  - {fileID: 4524533804289268}
  - {fileID: 4788434790453064}
  - {fileID: 4684353707666198}
  - {fileID: 4790742139201348}
  - {fileID: 4714962270503514}
  - {fileID: 4058854140134924}
  - {fileID: 4435392296721936}
  - {fileID: 4013830951915700}
  - {fileID: 4607709726556906}
  - {fileID: 4743286357175544}
  m_BlendShapeWeights:
  - 0
  - 100
  - 50
  - 0
  - 25
  - 25
  - 100
  - 0
  - 100
  - 0
  - 0
  m_RootBone: {fileID: 4961981866179800}
  m_AABB:
    m_Center: {x: 0.11493045, y: 0.18775713, z: 0.00047372282}
    m_Extent: {x: 0.4146288, y: 0.8101045, z: 0.20203863}
  m_DirtyAABB: 0
